1º Ano/1 Semestre/ISD/Quartus-prime/Teste/simulation/qsim/Teste1.msim.vcd
$comment
	File created using the following command:
		vcd file Teste1.msim.vcd -direction
$end
$date
	Mon Dec  4 17:24:02 2023
$end
$version
	Questa Intel Starter FPGA Edition Version 2021.2
$end
$timescale
	1ps
$end

$scope module teste1_vhd_vec_tst $end
$var wire 1 ! S [2] $end
$var wire 1 " S [1] $end
$var wire 1 # S [0] $end
$var wire 1 $ X0 $end
$var wire 1 % X1 $end
$var wire 1 & X2 $end
$var wire 1 ' X3 $end
$var wire 1 ( X4 $end
$var wire 1 ) X5 $end
$var wire 1 * X6 $end
$var wire 1 + X7 $end
$var wire 1 , Y $end

$scope module i1 $end
$var wire 1 - gnd $end
$var wire 1 . vcc $end
$var wire 1 / unknown $end
$var wire 1 0 devoe $end
$var wire 1 1 devclrn $end
$var wire 1 2 devpor $end
$var wire 1 3 ww_devoe $end
$var wire 1 4 ww_devclrn $end
$var wire 1 5 ww_devpor $end
$var wire 1 6 ww_Y $end
$var wire 1 7 ww_S [2] $end
$var wire 1 8 ww_S [1] $end
$var wire 1 9 ww_S [0] $end
$var wire 1 : ww_X0 $end
$var wire 1 ; ww_X1 $end
$var wire 1 < ww_X3 $end
$var wire 1 = ww_X4 $end
$var wire 1 > ww_X5 $end
$var wire 1 ? ww_X2 $end
$var wire 1 @ ww_X7 $end
$var wire 1 A ww_X6 $end
$var wire 1 B \Y~output_o\ $end
$var wire 1 C \X5~input_o\ $end
$var wire 1 D \S[0]~input_o\ $end
$var wire 1 E \X6~input_o\ $end
$var wire 1 F \S[1]~input_o\ $end
$var wire 1 G \X4~input_o\ $end
$var wire 1 H \inst1|23~0_combout\ $end
$var wire 1 I \X7~input_o\ $end
$var wire 1 J \inst1|23~1_combout\ $end
$var wire 1 K \X2~input_o\ $end
$var wire 1 L \X1~input_o\ $end
$var wire 1 M \X0~input_o\ $end
$var wire 1 N \inst1|23~2_combout\ $end
$var wire 1 O \X3~input_o\ $end
$var wire 1 P \inst1|23~3_combout\ $end
$var wire 1 Q \S[2]~input_o\ $end
$var wire 1 R \inst1|23~4_combout\ $end
$upscope $end
$upscope $end
$enddefinitions $end
#0
$dumpvars
1$
0%
0&
0'
1(
1)
0*
0+
1,
0-
1.
x/
10
11
12
13
14
15
16
1:
0;
0<
1=
1>
0?
0@
0A
1B
1C
0D
0E
0F
1G
1H
0I
1J
0K
0L
1M
1N
0O
1P
1Q
1R
1!
0"
0#
17
08
09
$end
#10000
1#
1%
1'
0(
0)
19
1;
1<
0=
0>
0C
0G
1O
1L
1D
0H
0J
0R
0B
06
0,
#20000
0'
0!
0$
1+
0<
07
0:
1@
1I
0M
0Q
0O
1R
1B
16
1,
#30000
0+
0#
1&
1*
0@
09
1?
1A
1E
1K
0D
0I
0N
0P
0R
0B
06
0,
#40000
1+
0*
1$
0%
1@
0A
1:
0;
0L
1M
0E
1I
1N
1P
1R
1B
16
1,
#50000
1*
0$
1#
0&
1'
1!
1"
1A
0:
19
18
17
0?
1<
1O
0K
1Q
1F
1D
0M
1E
1H
0R
1J
1R
0B
06
0,
1B
16
1,
#60000
0*
1$
1&
0+
1%
1(
1)
0A
1:
1?
0@
1;
1=
1>
1C
1G
1L
0I
1K
1M
0E
0J
0R
0B
06
0,
#70000
1+
0%
0(
0#
0!
0"
1@
0;
0=
09
08
07
0Q
0F
0D
0G
0L
1I
1J
0H
1R
0J
1B
16
1,
#80000
1%
1#
1*
0$
0)
0'
1;
19
1A
0:
0>
0<
0O
0C
0M
1E
1D
1L
#90000
0#
0*
1$
1'
1(
1!
1"
09
18
17
0A
1:
1<
1=
1G
1O
1M
0E
1Q
1F
0D
0R
0N
0B
06
0,
#100000
1#
0$
0'
0!
0"
1)
0+
0&
19
08
07
0:
0<
1>
0@
0?
0K
0I
1C
0O
0M
0Q
0F
1D
1R
1N
1J
0P
0R
1P
1R
1B
16
0B
1,
06
1B
0,
16
1,
#110000
0#
1$
1'
1!
1"
1+
1*
0(
0%
09
18
17
1:
1<
1@
1A
0=
0;
0L
0G
1E
1I
1O
1M
1Q
1F
0D
0J
1H
0N
0P
1J
0R
1R
0B
06
1B
0,
16
1,
#120000
1#
0$
0!
0"
0)
19
08
07
0:
0>
0C
0M
0Q
0F
1D
0H
0R
0J
0B
06
0,
#130000
0#
1$
1!
1"
0'
0+
1(
09
18
17
1:
0<
0@
1=
1G
0I
0O
1M
1Q
1F
0D
1H
1J
1R
1B
16
1,
#140000
1#
0$
0!
1)
0*
1%
1&
19
07
0:
1>
0A
1;
1?
1K
1L
0E
1C
0M
0Q
1D
0R
0J
1N
1P
0P
1R
0R
0B
06
1B
0,
16
0B
1,
06
0,
#150000
0#
1*
0%
0&
0(
09
1A
0;
0?
0=
0G
0K
0L
1E
0D
1J
0N
#160000
1&
1(
1$
0)
0"
1?
1=
1:
0>
08
0F
0C
1M
1G
1K
1N
1P
1R
1B
16
1,
#170000
0&
0$
1#
1%
0?
0:
19
1;
1L
1D
0M
0K
0H
0J
#180000
0#
0%
1"
1'
1+
09
18
0;
1<
1@
1I
1O
0L
1F
0D
1H
0N
0P
1J
0R
0B
06
0,
#190000
0"
0'
0(
1!
08
17
0<
0=
0G
0O
1Q
0F
1R
0H
0J
0R
1B
16
1,
0B
06
0,
#200000
1'
1(
1%
1&
1$
1)
0*
1<
1=
1;
1?
1:
1>
0A
0E
1C
1M
1K
1L
1G
1O
1N
1H
1J
1P
1R
1B
16
1,
#210000
0(
0)
1"
0!
0+
0=
0>
18
07
0@
0I
0Q
1F
0C
0G
0H
0N
0J
#220000
1(
0"
1!
0'
0%
0$
1*
1#
1=
19
08
17
0<
0;
0:
1A
1E
0M
0L
0O
1Q
0F
1D
1G
0R
0P
0B
06
0,
#230000
0(
1'
1$
0*
0#
1+
0=
1<
1:
0A
09
1@
1I
0D
0E
1M
1O
0G
1N
1P
#240000
1(
1*
1)
0&
1=
1A
1>
0?
0K
1C
1E
1G
1H
1J
1R
1B
16
1,
#250000
0*
1&
0+
0!
1%
0A
1?
0@
07
1;
1L
0Q
0I
1K
0E
#260000
1*
1+
1!
0)
0$
1A
1@
17
0>
0:
0M
0C
1Q
1I
1E
0N
0P
#270000
0+
1$
0(
0@
1:
0=
0G
1M
0I
1N
0H
0J
1P
0R
0B
06
0,
#280000
1+
0&
0%
0'
1#
1"
1@
0?
0;
0<
19
18
1F
1D
0O
0L
0K
1I
1H
0P
1J
1R
1B
16
1,
#290000
1%
1'
0#
0!
1)
1;
1<
09
07
1>
1C
0Q
0D
1O
1L
1P
0N
0R
0P
1R
0R
0B
06
1B
0,
16
0B
1,
06
0,
#300000
0'
1&
0<
1?
1K
0O
1P
1R
1B
16
1,
#310000
1'
0&
0"
0$
1<
0?
08
0:
0M
0F
0K
1O
0H
0P
0R
0J
0B
06
0,
#320000
1$
0%
1!
0)
0+
1:
0;
17
0>
0@
0I
0C
1Q
0L
1M
1N
1P
#330000
1%
0!
1)
1+
1&
1"
1(
1;
18
07
1>
1@
1?
1=
1G
1K
1I
1C
0Q
1F
1L
0N
1R
1H
1J
1B
16
1,
#340000
0%
0)
0+
0&
0$
0*
0;
0>
0@
0?
0:
0A
0E
0M
0K
0I
0C
0L
0P
0H
0J
0R
0B
06
0,
#350000
1)
1&
0"
0(
1>
1?
08
0=
0G
0F
1K
1C
#360000
1%
1*
1!
0'
1#
1;
1A
19
17
0<
0O
1Q
1D
1E
1L
1J
1N
1P
1R
1B
16
1,
#370000
0%
0*
1'
0#
0)
1"
0;
0A
1<
09
18
0>
0C
1F
0D
1O
0E
0L
0N
0J
0R
0B
06
0,
#380000
1%
1*
1#
0!
0&
1$
1;
1A
19
07
0?
1:
1M
0K
0Q
1D
1E
1L
1H
1R
0P
1N
1P
0R
1R
1B
16
0B
1,
06
1B
0,
16
1,
#390000
0#
1!
0$
0'
0"
1(
09
08
17
0:
0<
1=
1G
0O
0M
1Q
0F
0D
1J
0R
0N
0P
1R
0B
06
1B
0,
16
1,
#400000
0!
0(
0%
0*
1&
1)
1+
07
0=
0;
0A
1?
1>
1@
1I
1C
1K
0E
0L
0G
0Q
0R
0H
0J
0B
06
0,
#410000
1!
1(
1%
0+
1#
1'
1"
19
18
17
1=
1;
0@
1<
1O
0I
1L
1G
1Q
1F
1D
1H
1N
1J
1P
1R
0J
0R
1B
16
0B
1,
06
0,
#420000
0!
0(
1+
0"
08
07
0=
1@
1I
0G
0Q
0F
1R
0H
1J
1B
16
1,
#430000
1!
1(
1"
0#
0'
1*
0)
1$
09
18
17
1=
0<
1A
0>
1:
1M
0C
1E
0O
1G
1Q
1F
0D
0P
1H
0J
0N
1P
1J
0R
1R
0B
06
1B
0,
16
1,
#440000
0(
0"
1#
1'
0*
0+
0&
0=
19
08
1<
0A
0@
0?
0K
0I
0E
1O
0F
1D
0G
1N
0H
0J
0P
0R
1P
0B
06
0,
#450000
1*
0!
0%
1A
07
0;
0L
0Q
1E
1R
0N
0P
0R
1B
16
1,
0B
06
0,
#460000
0*
1%
1(
1"
1)
0A
1;
1=
18
1>
1C
1F
1G
1L
0E
1H
1N
1J
1P
0J
1R
1B
16
1,
#470000
0"
0#
0'
1+
09
08
0<
1@
1I
0O
0F
0D
1J
#480000
1"
1*
0(
0)
1!
18
17
1A
0=
0>
0C
0G
1E
1Q
1F
0N
0P
#490000
0"
1)
1#
0+
0%
19
08
1>
0@
0;
0L
0I
1C
0F
1D
0H
0J
0R
1J
1R
0B
06
1B
0,
16
1,
#500000
1"
1%
0*
1(
0!
18
07
1;
0A
1=
1G
0E
1L
0Q
1F
0R
1N
1H
0J
0B
06
0,
#510000
0"
0%
0(
1+
1'
1&
0$
08
0;
0=
1@
1<
1?
0:
0M
1K
1O
1I
0G
0L
0F
0H
1J
1P
0N
0P
1R
0R
1B
16
0B
1,
06
0,
#520000
1"
1(
0'
1$
1!
18
17
1=
0<
1:
1M
0O
1G
1Q
1F
1R
1H
1P
1N
0P
1B
16
1,
#530000
0!
07
0Q
0R
0B
06
0,
#540000
1!
1*
17
1A
1E
1Q
1R
1B
16
1,
#550000
0*
0"
0(
0$
0+
0&
0#
0A
09
08
0=
0:
0@
0?
0K
0I
0M
0G
0F
0D
0E
0H
0N
1P
0P
0J
0R
0B
06
0,
#560000
1(
1$
1#
1%
0)
1=
1:
19
1;
0>
0C
1L
1D
1M
1G
1N
1P
#570000
0(
1)
1&
0!
0=
1>
1?
07
0Q
1K
1C
0G
1J
1R
1B
16
1,
#580000
0)
0&
1!
1+
1'
0>
0?
17
1@
1<
1O
1I
1Q
0K
0C
0J
0R
0B
06
0,
#590000
1)
1&
1(
0$
0#
1>
1?
1=
0:
09
0D
0M
1G
1K
1C
1H
0N
0P
1J
1R
1B
16
1,
#600000
0)
1$
0!
0+
1*
0>
1:
07
0@
1A
1E
0I
0Q
1M
0C
1N
0R
1P
1R
0B
06
0,
1B
16
1,
#610000
1)
0$
0*
0&
0(
0%
1>
0:
0A
0?
0=
0;
0L
0G
0K
0E
0M
1C
0H
0N
0P
0J
0R
0B
06
0,
#620000
1&
1(
1+
1?
1=
1@
1I
1G
1K
1H
1J
#630000
0&
0(
0+
1*
1%
1!
0?
0=
0@
1A
1;
17
1Q
1L
1E
0I
0G
0K
0H
1R
0J
0R
1B
16
1,
0B
06
0,
#640000
1(
1+
0!
1$
1#
1=
1@
19
07
1:
1M
0Q
1D
1I
1G
1J
1N
1P
1R
1B
16
1,
#650000
0(
0+
1!
0*
0%
1"
0=
0@
18
17
0A
0;
0L
0E
1Q
1F
0I
0G
1H
0J
0R
0B
06
0,
#660000
1+
0!
0#
1&
0)
0'
1@
09
07
1?
0>
0<
0O
0C
1K
0Q
0D
1I
0H
0N
1R
1J
0P
0R
1P
0J
1R
1B
16
0B
1,
06
1B
0,
16
1,
#670000
1)
1'
1(
1*
1%
1>
1<
1=
1A
1;
1L
1E
1G
1O
1C
1H
1J
#680000
0)
0(
0*
0&
0$
0>
0=
0A
0?
0:
0M
0K
0E
0G
0C
0H
0P
0R
0J
0B
06
0,
#690000
1)
1(
1$
0%
0+
0"
1>
1=
1:
0;
0@
08
0F
0I
0L
1M
1G
1C
1H
1N
1P
1J
1R
1B
16
1,
#700000
0(
1%
1"
1*
1&
0'
1#
0=
1;
19
18
1A
1?
0<
0O
1K
1E
1F
1D
1L
0G
0J
0P
0R
0B
06
0,
#710000
1(
0%
0"
0&
0)
1+
1=
0;
08
0?
0>
1@
1I
0C
0K
0F
0L
1G
0H
0N
1P
1J
1R
0P
0J
0R
1B
16
0B
1,
06
0,
#720000
0(
1%
1"
1)
1'
0$
1!
0=
1;
18
17
1>
1<
0:
0M
1O
1C
1Q
1F
1L
0G
1H
1J
1N
1P
1R
1B
16
1,
#730000
1(
0%
0)
1$
0!
1&
0*
1=
0;
0>
1:
07
1?
0A
0E
1K
0Q
1M
0C
0L
1G
#740000
0(
1%
1)
0$
1!
1*
0'
0#
0=
1;
1>
0:
09
17
1A
0<
0O
1E
1Q
0D
0M
1C
1L
0G
0N
0P
1P
#750000
1(
0%
0)
1$
0!
1#
0&
0"
1=
0;
0>
1:
19
08
07
0?
0K
0Q
0F
1D
1M
0C
0L
1G
0H
0P
0R
0J
0B
06
0,
#760000
0(
1)
0*
0+
0=
1>
0A
0@
0I
0E
1C
0G
1J
#770000
0)
1+
1&
1"
1'
0>
1@
1?
18
1<
1O
1F
1K
1I
0C
0J
1H
1N
1P
1J
1R
1B
16
1,
#780000
1)
0&
0"
1*
1%
0#
1>
0?
09
08
1A
1;
1L
1E
0F
0D
0K
1C
0H
0J
#790000
0)
1"
0%
0+
1(
0$
0>
18
0;
0@
1=
0:
0M
1G
0I
0L
1F
0C
1H
0N
0P
1J
0R
0B
06
0,
#800000
0"
1%
1+
0(
1$
1&
0*
1#
1!
19
08
17
1;
1@
0=
1:
1?
0A
0E
1K
1M
0G
1I
1L
1Q
0F
1D
1R
1N
0H
0J
1P
0R
1B
16
1,
0B
06
0,
#810000
1"
0$
1*
0!
1)
18
07
0:
1A
1>
1C
1E
0M
0Q
1F
1R
1H
1J
1B
16
1,
#820000
0*
0%
0+
1(
0&
0'
0A
0;
0@
1=
0?
0<
0O
0K
1G
0I
0L
0E
0J
0P
0R
0B
06
0,
#830000
1*
1+
1$
1!
1A
1@
1:
17
1Q
1M
1I
1E
1J
1R
1B
16
1,
#840000
0*
0$
1%
1&
1'
0"
0A
0:
1;
1?
1<
08
0F
1O
1K
1L
0M
0E
0H
1P
#850000
1*
0%
1"
0!
0(
0)
1A
0;
18
07
0=
0>
0C
0G
0Q
1F
0L
1E
1H
0J
1J
#860000
0*
1!
1)
1$
0#
0A
09
17
1>
1:
1M
1C
1Q
0D
0E
0H
0N
0J
0R
0B
06
0,
#870000
1*
0!
0)
0$
1%
0"
0'
0+
1A
08
07
0>
0:
1;
0<
0@
0I
0O
1L
0M
0C
0Q
0F
1E
1R
0P
0R
1B
16
0B
1,
06
0,
#880000
1)
1$
0%
1"
1'
1#
1(
1>
1:
0;
19
18
1<
1=
1G
1O
1F
1D
0L
1M
1C
1J
1N
1P
1H
0J
1R
1B
16
1,
#890000
0*
1+
0&
0A
1@
0?
0K
1I
0E
1J
#900000
1*
1&
0"
0'
1A
1?
08
0<
0O
0F
1K
1E
0H
0N
0P
0R
0B
06
0,
#910000
1"
0)
1%
0(
1!
18
17
0>
1;
0=
0G
1L
0C
1Q
1F
1P
1R
0J
1N
1H
1J
0P
0R
1R
1B
16
0B
1,
06
1B
0,
16
1,
#920000
0"
1)
1(
0!
0*
0&
1'
0+
08
07
1>
1=
0A
0?
1<
0@
0I
1O
0K
0E
1G
1C
0Q
0F
0R
0H
1P
0J
1R
1J
0B
06
1B
0,
16
1,
#930000
1"
0(
1*
1&
0%
0#
09
18
0=
1A
1?
0;
0L
1K
1E
0G
1F
0D
0J
1H
0N
1J
#940000
0$
0:
0M
#950000
0"
0*
0)
1!
1+
08
17
0A
0>
1@
1I
0C
0E
1Q
0F
0P
0H
0J
0R
0B
06
0,
#960000
0+
1$
1(
0&
1#
0@
1:
1=
0?
19
1D
0K
1G
1M
0I
#970000
1+
0$
0(
0#
1)
0'
1@
0:
0=
09
1>
0<
0O
1C
0D
0G
0M
1I
#980000
0+
1$
1(
1#
0)
1'
1&
1*
0!
1%
0@
1:
1=
19
07
0>
1<
1?
1A
1;
1L
1E
1K
1O
0C
0Q
1D
1G
1M
0I
1N
1P
1R
1B
16
1,
#990000
0$
1)
0'
0&
1!
1"
0:
1>
0<
0?
18
17
1Q
1F
0K
0O
1C
0M
1J
1H
0P
0R
0J
1R
0R
0B
06
1B
0,
16
0B
1,
06
0,
