1 ano/1 Semestre/ISD/Quartus-prime/decoder2para4/simulation/qsim/Decoder2para4.msim.vcd
$comment
	File created using the following command:
		vcd file Decoder2para4.msim.vcd -direction
$end
$date
	Thu Nov 30 09:29:18 2023
$end
$version
	Questa Intel Starter FPGA Edition Version 2021.2
$end
$timescale
	1ps
$end

$scope module decoder2para4_vhd_vec_tst $end
$var wire 1 ! E $end
$var wire 1 " x1 $end
$var wire 1 # x2 $end
$var wire 1 $ x3 $end
$var wire 1 % x4 $end
$var wire 1 & x5 $end
$var wire 1 ' x6 $end

$scope module i1 $end
$var wire 1 ( gnd $end
$var wire 1 ) vcc $end
$var wire 1 * unknown $end
$var wire 1 + devoe $end
$var wire 1 , devclrn $end
$var wire 1 - devpor $end
$var wire 1 . ww_devoe $end
$var wire 1 / ww_devclrn $end
$var wire 1 0 ww_devpor $end
$var wire 1 1 ww_x3 $end
$var wire 1 2 ww_x1 $end
$var wire 1 3 ww_E $end
$var wire 1 4 ww_x2 $end
$var wire 1 5 ww_x4 $end
$var wire 1 6 ww_x5 $end
$var wire 1 7 ww_x6 $end
$var wire 1 8 \x3~output_o\ $end
$var wire 1 9 \x4~output_o\ $end
$var wire 1 : \x5~output_o\ $end
$var wire 1 ; \x6~output_o\ $end
$var wire 1 < \E~input_o\ $end
$var wire 1 = \x2~input_o\ $end
$var wire 1 > \x1~input_o\ $end
$var wire 1 ? \inst9~combout\ $end
$var wire 1 @ \inst3~combout\ $end
$var wire 1 A \inst4~combout\ $end
$var wire 1 B \inst5~combout\ $end
$upscope $end
$upscope $end
$enddefinitions $end
#0
$dumpvars
0!
1"
1#
0$
0%
0&
0'
0(
1)
x*
1+
1,
1-
1.
1/
10
01
12
03
14
05
06
07
08
09
0:
0;
0<
1=
1>
0?
0@
0A
0B
$end
#10000
1!
13
1<
1?
18
11
1$
#20000
0#
04
0=
0?
1@
19
08
15
01
1%
0$
#30000
0!
0"
03
02
0>
0<
0@
09
05
0%
#60000
1#
14
1=
#70000
1!
1"
13
12
1>
1<
1?
18
11
1$
#90000
0"
0#
02
04
0=
0>
0?
1B
1;
08
17
01
1'
0$
#100000
1"
1#
0!
12
14
03
0<
1=
1>
0B
0;
07
0'
#110000
0#
1!
04
13
1<
0=
1@
19
15
1%
#120000
1#
0!
0"
14
03
02
0>
0<
1=
0@
09
05
0%
#130000
1"
12
1>
#160000
0"
0#
02
04
0=
0>
#170000
1"
12
1>
#180000
1#
1!
14
13
1<
1=
1?
18
11
1$
#190000
0#
0"
04
02
0>
0=
0?
1B
1;
08
17
01
1'
0$
#200000
1#
0!
14
03
0<
1=
0B
0;
07
0'
#210000
0#
1"
04
12
1>
0=
#220000
0"
1!
02
13
1<
0>
1B
1;
17
1'
#240000
1"
1#
12
14
1=
1>
1?
0B
0;
18
07
11
0'
1$
#260000
0#
04
0=
0?
1@
19
08
15
01
1%
0$
#270000
0"
02
0>
0@
1B
1;
09
17
05
1'
0%
#280000
1#
0!
14
03
0<
1=
0B
0;
07
0'
#300000
1!
13
1<
1A
1:
16
1&
#330000
0!
0#
03
04
0=
0<
0A
0:
06
0&
#340000
1"
12
1>
#350000
1#
14
1=
#370000
1!
13
1<
1?
18
11
1$
#380000
0#
0"
04
02
0>
0=
0?
1B
1;
08
17
01
1'
0$
#390000
1#
0!
14
03
0<
1=
0B
0;
07
0'
#400000
1!
13
1<
1A
1:
16
1&
#410000
0#
04
0=
0A
1B
1;
0:
17
06
1'
0&
#420000
1#
0!
1"
14
03
12
1>
0<
1=
0B
0;
07
0'
#440000
0"
02
0>
#450000
1"
12
1>
#460000
0#
1!
04
13
1<
0=
1@
19
15
1%
#470000
0!
0"
03
02
0>
0<
0@
09
05
0%
#480000
1!
1"
1#
13
12
14
1=
1>
1<
1?
18
11
1$
#490000
0"
02
0>
0?
1A
1:
08
16
01
1&
0$
#500000
1"
0#
12
04
0=
1>
1@
0A
0:
19
06
15
0&
1%
#510000
1#
0!
14
03
0<
1=
0@
09
05
0%
#520000
1!
13
1<
1?
18
11
1$
#530000
0"
02
0>
0?
1A
1:
08
16
01
1&
0$
#540000
1"
12
1>
1?
0A
0:
18
06
11
0&
1$
#550000
0"
0#
02
04
0=
0>
0?
1B
1;
08
17
01
1'
0$
#570000
1"
0!
12
03
0<
1>
0B
0;
07
0'
#580000
1!
13
1<
1@
19
15
1%
#590000
0!
0"
03
02
0>
0<
0@
09
05
0%
#600000
1!
1"
1#
13
12
14
1=
1>
1<
1?
18
11
1$
#610000
0!
0"
0#
03
02
04
0=
0>
0<
0?
08
01
0$
#620000
1#
14
1=
#630000
0#
1!
04
13
1<
0=
1B
1;
17
1'
#640000
1#
14
1=
1A
0B
0;
1:
07
16
0'
1&
#650000
0!
03
0<
0A
0:
06
0&
#660000
1"
12
1>
#670000
0"
02
0>
#690000
1"
1!
12
13
1<
1>
1?
18
11
1$
#700000
0"
0!
0#
02
03
04
0=
0<
0>
0?
08
01
0$
#710000
1!
13
1<
1B
1;
17
1'
#720000
0!
1"
03
12
1>
0<
0B
0;
07
0'
#730000
0"
1#
02
14
1=
0>
#740000
0#
1!
04
13
1<
0=
1B
1;
17
1'
#760000
1#
14
1=
1A
0B
0;
1:
07
16
0'
1&
#770000
0!
03
0<
0A
0:
06
0&
#780000
0#
1"
04
12
1>
0=
#800000
1#
14
1=
#810000
0"
1!
02
13
1<
0>
1A
1:
16
1&
#820000
0!
03
0<
0A
0:
06
0&
#830000
1!
13
1<
1A
1:
16
1&
#840000
1"
12
1>
1?
0A
0:
18
06
11
0&
1$
#850000
0#
04
0=
0?
1@
19
08
15
01
1%
0$
#860000
1#
0"
14
02
0>
1=
0@
1A
1:
09
16
05
1&
0%
#870000
1"
12
1>
1?
0A
0:
18
06
11
0&
1$
#880000
0#
04
0=
0?
1@
19
08
15
01
1%
0$
#890000
1#
14
1=
1?
0@
09
18
05
11
0%
1$
#900000
0"
02
0>
0?
1A
1:
08
16
01
1&
0$
#910000
1"
0#
12
04
0=
1>
1@
0A
0:
19
06
15
0&
1%
#920000
0!
03
0<
0@
09
05
0%
#930000
1!
0"
1#
13
02
14
1=
0>
1<
1A
1:
16
1&
#940000
0!
1"
03
12
1>
0<
0A
0:
06
0&
#950000
0"
0#
02
04
0=
0>
#970000
1"
12
1>
#980000
1#
1!
14
13
1<
1=
1?
18
11
1$
#990000
0!
0"
03
02
0>
0<
0?
08
01
0$
