1 Semestre/ISD/Quartus-prime/exercicio4/simulation/qsim/testedanet.msim.vcd
$comment
	File created using the following command:
		vcd file testedanet.msim.vcd -direction
$end
$date
	Wed Nov 29 13:38:13 2023
$end
$version
	Questa Intel Starter FPGA Edition Version 2021.2
$end
$timescale
	1ps
$end

$scope module testedanet_vhd_vec_tst $end
$var wire 1 ! A $end
$var wire 1 " B $end
$var wire 1 # C $end
$var wire 1 $ D $end
$var wire 1 % E $end
$var wire 1 & F $end
$var wire 1 ' pin_name1 $end

$scope module i1 $end
$var wire 1 ( gnd $end
$var wire 1 ) vcc $end
$var wire 1 * unknown $end
$var wire 1 + devoe $end
$var wire 1 , devclrn $end
$var wire 1 - devpor $end
$var wire 1 . ww_devoe $end
$var wire 1 / ww_devclrn $end
$var wire 1 0 ww_devpor $end
$var wire 1 1 ww_pin_name1 $end
$var wire 1 2 ww_E $end
$var wire 1 3 ww_F $end
$var wire 1 4 ww_C $end
$var wire 1 5 ww_D $end
$var wire 1 6 ww_A $end
$var wire 1 7 ww_B $end
$var wire 1 8 \pin_name1~output_o\ $end
$var wire 1 9 \A~input_o\ $end
$var wire 1 : \B~input_o\ $end
$var wire 1 ; \D~input_o\ $end
$var wire 1 < \F~input_o\ $end
$var wire 1 = \C~input_o\ $end
$var wire 1 > \E~input_o\ $end
$var wire 1 ? \inst4~0_combout\ $end
$var wire 1 @ \inst4~combout\ $end
$upscope $end
$upscope $end
$enddefinitions $end
#0
$dumpvars
1!
0"
0#
1$
0%
0&
0'
0(
1)
x*
1+
1,
1-
1.
1/
10
01
02
03
04
15
16
07
08
19
0:
1;
0<
0=
0>
0?
0@
$end
#10000
0!
1#
0$
06
14
05
0;
1=
09
#20000
1$
1&
15
13
1<
1;
1?
1@
18
11
1'
#30000
0$
0&
1!
05
03
16
19
0<
0;
0?
0@
08
01
0'
#40000
1$
0!
0#
1%
15
06
04
12
1>
0=
09
1;
#50000
1!
0%
1&
16
02
13
1<
0>
19
#60000
0$
1#
1"
05
14
17
1:
1=
0;
1@
18
11
1'
#70000
0#
0"
1%
0&
04
07
12
03
0<
1>
0:
0=
0@
08
01
0'
#80000
1#
1"
1&
14
17
13
1<
1:
1=
1@
1?
18
11
1'
#90000
0!
06
09
#100000
0#
0"
0&
1$
04
07
03
15
1;
0<
0:
0=
0?
0@
08
01
0'
#110000
1"
1&
0$
17
13
05
0;
1<
1:
1?
1@
18
11
1'
#120000
1$
15
1;
#130000
0$
0"
1#
1!
0%
05
07
14
16
02
0>
19
1=
0:
0;
0?
0@
08
01
0'
#140000
0#
0&
04
03
0<
0=
#150000
1$
1"
0!
15
17
06
09
1:
1;
#160000
1!
1#
1&
16
14
13
1<
1=
19
1@
1?
18
11
1'
#170000
0!
0#
0&
1%
06
04
03
12
1>
0<
0=
09
0?
0@
08
01
0'
#180000
1!
1#
1&
0$
16
14
13
05
0;
1<
1=
19
1@
1?
18
11
1'
#190000
0!
0%
0"
06
02
07
0:
0>
09
0?
0@
08
01
0'
#200000
1!
1%
16
12
1>
19
1?
1@
18
11
1'
#210000
0!
0%
1$
06
02
15
1;
0>
09
#220000
1!
0#
16
04
0=
19
0?
0@
08
01
0'
#230000
0!
1#
1"
06
14
17
1:
1=
09
1?
1@
18
11
1'
#240000
1!
0#
0$
0&
16
04
05
03
0<
0;
0=
19
0?
#250000
0!
1#
0"
1%
06
14
07
12
1>
0:
1=
09
0@
08
01
0'
#260000
0#
1"
0%
04
17
02
0>
1:
0=
#270000
0"
1%
1!
1$
07
12
16
15
1;
19
1>
0:
#280000
0!
0$
1#
06
05
14
1=
0;
09
#290000
1$
15
1;
1?
1@
18
11
1'
#300000
0$
1!
0#
1&
05
16
04
13
1<
0=
19
0;
#310000
0!
1#
0&
1"
06
14
03
17
1:
0<
1=
09
0?
0@
08
01
0'
#320000
1!
1&
0"
0%
16
13
07
02
0>
0:
1<
19
#330000
0!
0&
0#
06
03
04
0=
0<
09
#340000
1!
1&
1"
1%
16
13
17
12
1>
1:
1<
19
1@
1?
18
11
1'
#350000
0%
1#
02
14
1=
0>
0?
#360000
0&
03
0<
#370000
1&
0!
1$
13
06
15
1;
09
1<
0@
1?
1@
08
01
18
0'
11
1'
#380000
1!
16
19
#390000
0$
0"
05
07
0:
0;
0?
0@
08
01
0'
#400000
1$
1%
0#
15
12
04
0=
1>
1;
1?
1@
18
11
1'
#410000
0$
0!
0&
05
06
03
0<
09
0;
0?
0@
08
01
0'
#420000
1!
1&
0%
16
13
02
0>
1<
19
#430000
0!
06
09
#440000
0&
1#
03
14
1=
0<
#450000
1&
1"
13
17
1:
1<
#460000
0"
1%
1$
07
12
15
1;
1>
0:
1?
1@
18
11
1'
#470000
1"
0%
0#
1!
17
02
04
16
19
0=
0>
1:
0?
#480000
1%
1#
0&
12
14
03
0<
1=
1>
1?
#490000
0#
0!
0$
04
06
05
0;
09
0=
0?
0@
08
01
0'
#500000
1!
0%
1&
0"
16
02
13
07
0:
1<
0>
19
#510000
1#
14
1=
#520000
0#
0!
1$
04
06
15
1;
09
0=
#530000
1#
0$
1%
0&
14
05
12
03
0<
1>
0;
1=
#540000
0#
04
0=
#550000
1&
13
1<
1?
1@
18
11
1'
#560000
0%
02
0>
0?
0@
08
01
0'
#570000
0&
1$
1"
03
15
17
1:
1;
0<
#580000
0$
0"
1#
1!
05
07
14
16
19
1=
0:
0;
#590000
0#
04
0=
#600000
1&
1%
13
12
1>
1<
1?
1@
18
11
1'
#610000
0%
0!
02
06
09
0>
0?
0@
08
01
0'
#620000
1%
0&
12
03
0<
1>
#630000
0%
1&
1#
1"
02
13
14
17
1:
1=
1<
0>
#640000
0&
0#
1!
1$
03
04
16
15
1;
19
0=
0<
1@
18
11
1'
#650000
1&
1#
0!
13
14
06
09
1=
1<
1?
0@
1@
08
01
18
0'
11
1'
#660000
0&
0#
1!
0$
1%
0"
03
04
16
05
12
07
0:
1>
0;
19
0=
0<
0?
0@
08
01
0'
#670000
1&
1"
13
17
1:
1<
1?
1@
18
11
1'
#680000
0&
0!
0%
03
06
02
0>
09
0<
0?
0@
08
01
0'
#690000
0"
1$
07
15
1;
0:
#700000
1%
12
1>
#710000
0%
1"
1!
1#
02
17
16
14
1=
19
1:
0>
1@
1?
18
11
1'
#720000
1%
0#
12
04
0=
1>
0?
#730000
0%
1#
0"
0!
1&
02
14
07
06
13
1<
09
0:
1=
0>
0@
1?
1@
08
01
18
0'
11
1'
#740000
1%
1!
0$
12
16
05
0;
19
1>
#750000
0%
1"
0&
02
17
03
0<
1:
0>
0?
#760000
1&
0!
0#
13
06
04
0=
09
1<
0@
08
01
0'
#770000
0&
1!
1%
0"
03
16
12
07
0:
1>
19
0<
#780000
1"
1#
1$
17
14
15
1;
1=
1:
1@
1?
18
11
1'
#790000
0"
0$
1&
07
05
13
1<
0;
0:
#800000
1$
0&
0%
15
03
02
0>
0<
1;
#810000
0$
1"
0#
05
17
04
0=
1:
0;
0?
#820000
1$
1%
15
12
1>
1;
#830000
0$
1#
05
14
1=
0;
#840000
0#
0%
0!
04
02
06
09
0>
0=
0@
08
01
0'
#850000
1#
0"
1&
14
07
13
1<
0:
1=
#860000
0#
1"
1$
04
17
15
1;
1:
0=
#870000
0"
0$
0&
1!
07
05
03
16
19
0<
0;
0:
#880000
1$
1&
1#
1%
15
13
14
12
1>
1=
1<
1;
1?
1@
18
11
1'
#890000
0$
0#
05
04
0=
0;
#900000
1#
0%
0!
14
02
06
09
0>
1=
0?
0@
08
01
0'
#910000
0#
1$
04
15
1;
0=
#920000
0$
1%
1!
0&
05
12
16
03
0<
19
1>
0;
#930000
0!
1"
06
17
1:
09
#940000
1!
0"
0%
1&
16
07
02
13
1<
0>
0:
19
#950000
1%
0&
12
03
0<
1>
#960000
0%
0!
1"
1#
02
06
17
14
1=
1:
09
0>
#970000
1!
0"
0#
1$
16
07
04
15
1;
0=
0:
19
#980000
0!
0$
1&
06
05
13
1<
0;
09
#990000
1$
1"
1#
15
17
14
1=
1:
1;
1?
1@
18
11
1'
