1 ano/1 Semestre/ISD/Quartus-prime/gatedemo/simulation/qsim/GateDemo.msim.vcd
$comment
	File created using the following command:
		vcd file GateDemo.msim.vcd -direction
$end
$date
	Wed Nov 29 17:31:16 2023
$end
$version
	Questa Intel Starter FPGA Edition Version 2021.2
$end
$timescale
	1ps
$end

$scope module gatedemo_vhd_vec_tst $end
$var wire 1 ! x1 $end
$var wire 1 " x2 $end
$var wire 1 # x3 $end

$scope module i1 $end
$var wire 1 $ gnd $end
$var wire 1 % vcc $end
$var wire 1 & unknown $end
$var wire 1 ' devoe $end
$var wire 1 ( devclrn $end
$var wire 1 ) devpor $end
$var wire 1 * ww_devoe $end
$var wire 1 + ww_devclrn $end
$var wire 1 , ww_devpor $end
$var wire 1 - ww_x3 $end
$var wire 1 . ww_x1 $end
$var wire 1 / ww_x2 $end
$var wire 1 0 \x3~output_o\ $end
$var wire 1 1 \x1~input_o\ $end
$var wire 1 2 \x2~input_o\ $end
$var wire 1 3 \inst~combout\ $end
$upscope $end
$upscope $end
$enddefinitions $end
#0
$dumpvars
1!
0"
0#
0$
1%
x&
1'
1(
1)
1*
1+
1,
0-
1.
0/
00
11
02
03
$end
#10000
0!
1"
0.
1/
12
01
#20000
1!
1.
11
13
10
1-
1#
#40000
0!
0.
01
03
00
0-
0#
#50000
0"
0/
02
#60000
1"
1!
1/
1.
11
12
13
10
1-
1#
#70000
0!
0.
01
03
00
0-
0#
#80000
1!
0"
1.
0/
02
11
#90000
1"
1/
12
13
10
1-
1#
#100000
0"
0/
02
03
00
0-
0#
#120000
1"
1/
12
13
10
1-
1#
#130000
0"
0!
0/
0.
01
02
03
00
0-
0#
#140000
1"
1!
1/
1.
11
12
13
10
1-
1#
#150000
0"
0/
02
03
00
0-
0#
#160000
1"
1/
12
13
10
1-
1#
#180000
0!
0.
01
03
00
0-
0#
#190000
1!
0"
1.
0/
02
11
#200000
1"
1/
12
13
10
1-
1#
#210000
0"
0!
0/
0.
01
02
03
00
0-
0#
#220000
1"
1/
12
#230000
0"
0/
02
#240000
1"
1/
12
#250000
0"
0/
02
#270000
1!
1.
11
#280000
0!
1"
0.
1/
12
01
#290000
1!
1.
11
13
10
1-
1#
#300000
0!
0"
0.
0/
02
01
03
00
0-
0#
#310000
1!
1"
1.
1/
12
11
13
10
1-
1#
#320000
0!
0.
01
03
00
0-
0#
#330000
0"
0/
02
#340000
1"
1/
12
#350000
0"
1!
0/
1.
11
02
#360000
1"
1/
12
13
10
1-
1#
#370000
0!
0.
01
03
00
0-
0#
#380000
0"
0/
02
#390000
1"
1/
12
#400000
0"
1!
0/
1.
11
02
#410000
1"
1/
12
13
10
1-
1#
#420000
0"
0!
0/
0.
01
02
03
00
0-
0#
#440000
1!
1.
11
#450000
0!
0.
01
#460000
1"
1/
12
#470000
0"
1!
0/
1.
11
02
#490000
1"
1/
12
13
10
1-
1#
#500000
0"
0!
0/
0.
01
02
03
00
0-
0#
#510000
1"
1/
12
#520000
1!
1.
11
13
10
1-
1#
#530000
0"
0/
02
03
00
0-
0#
#540000
0!
0.
01
#550000
1"
1/
12
#560000
0"
0/
02
#580000
1"
1!
1/
1.
11
12
13
10
1-
1#
#590000
0!
0.
01
03
00
0-
0#
#600000
1!
1.
11
13
10
1-
1#
#610000
0!
0.
01
03
00
0-
0#
#620000
0"
0/
02
#630000
1"
1!
1/
1.
11
12
13
10
1-
1#
#640000
0"
0/
02
03
00
0-
0#
#650000
1"
0!
1/
0.
01
12
#660000
1!
1.
11
13
10
1-
1#
#670000
0!
0"
0.
0/
02
01
03
00
0-
0#
#680000
1!
1.
11
#690000
0!
0.
01
#700000
1!
1.
11
#720000
1"
1/
12
13
10
1-
1#
#740000
0"
0/
02
03
00
0-
0#
#750000
1"
0!
1/
0.
01
12
#770000
0"
1!
0/
1.
11
02
#800000
1"
0!
1/
0.
01
12
#810000
0"
1!
0/
1.
11
02
#850000
1"
0!
1/
0.
01
12
#860000
0"
0/
02
#880000
1!
1.
11
#900000
1"
1/
12
13
10
1-
1#
#910000
0"
0/
02
03
00
0-
0#
#920000
0!
0.
01
#930000
1!
1"
1.
1/
12
11
13
10
1-
1#
#940000
0!
0.
01
03
00
0-
0#
#950000
1!
1.
11
13
10
1-
1#
#960000
0"
0/
02
03
00
0-
0#
#970000
1"
1/
12
13
10
1-
1#
#980000
0"
0/
02
03
00
0-
0#
#990000
1"
0!
1/
0.
01
12
